<svg width="640" height="1024" xmlns="http://www.w3.org/2000/svg">

 <g>
  <title>background</title>
  <rect fill="none" id="canvas_background" height="402" width="582" y="-1" x="-1"/>
 </g>
 <g>
  <title>Layer 1</title>
  <path fill="#ffffff" id="svg_1" d="m640,320l-128,-128l-192,192l-192,-192l-128,128l192,192l-192,192l128,128l192,-192l192,192l128,-128l-192,-192l192,-192z"/>
 </g>
</svg>